\relax 
\providecommand\hyper@newdestlabel[2]{}
\providecommand\HyperFirstAtBeginDocument{\AtBeginDocument}
\HyperFirstAtBeginDocument{\ifx\hyper@anchor\@undefined
\global\let\oldcontentsline\contentsline
\gdef\contentsline#1#2#3#4{\oldcontentsline{#1}{#2}{#3}}
\global\let\oldnewlabel\newlabel
\gdef\newlabel#1#2{\newlabelxx{#1}#2}
\gdef\newlabelxx#1#2#3#4#5#6{\oldnewlabel{#1}{{#2}{#3}}}
\AtEndDocument{\ifx\hyper@anchor\@undefined
\let\contentsline\oldcontentsline
\let\newlabel\oldnewlabel
\fi}
\fi}
\global\let\hyper@last\relax 
\gdef\HyperFirstAtBeginDocument#1{#1}
\providecommand\HyField@AuxAddToFields[1]{}
\providecommand\HyField@AuxAddToCoFields[2]{}
\citation{flux_paper}
\citation{TN38}
\citation{TN39}
\citation{TN99}
\citation{TN217}
\citation{TN264}
\@writefile{toc}{\contentsline {section}{\numberline {1}Details of the Machinery}{1}{section.1}}
\@writefile{toc}{\contentsline {section}{\numberline {2}Setting up the Code}{1}{section.2}}
\@writefile{toc}{\contentsline {subsection}{\numberline {2.1}Terminology}{1}{subsection.2.1}}
\@writefile{toc}{\contentsline {subsection}{\numberline {2.2}KEKCC Account}{2}{subsection.2.2}}
\@writefile{toc}{\contentsline {subsection}{\numberline {2.3}Installing Jnubeam}{2}{subsection.2.3}}
\@writefile{toc}{\contentsline {subsubsection}{\numberline {2.3.1}Compiling with gfortran}{2}{subsubsection.2.3.1}}
\@writefile{toc}{\contentsline {subsubsection}{\numberline {2.3.2}Compiling with g77}{3}{subsubsection.2.3.2}}
\@writefile{toc}{\contentsline {subsection}{\numberline {2.4}Installing FLUKA}{4}{subsection.2.4}}
\@writefile{toc}{\contentsline {section}{\numberline {3}Generating Flux Files}{4}{section.3}}
\@writefile{toc}{\contentsline {subsection}{\numberline {3.1}Running FLUKA}{4}{subsection.3.1}}
\@writefile{toc}{\contentsline {subsection}{\numberline {3.2}Running Jnubeam}{5}{subsection.3.2}}
\@writefile{toc}{\contentsline {subsection}{\numberline {3.3}Running Tuning}{6}{subsection.3.3}}
\@writefile{toc}{\contentsline {section}{\numberline {4}Creating the Release}{7}{section.4}}
\@writefile{toc}{\contentsline {subsection}{\numberline {4.1}Getting the Code}{7}{subsection.4.1}}
\@writefile{toc}{\contentsline {subsection}{\numberline {4.2}Making the Release File}{7}{subsection.4.2}}
\@writefile{toc}{\contentsline {subsection}{\numberline {4.3}Comparing Runs}{8}{subsection.4.3}}
\@writefile{toc}{\contentsline {subsection}{\numberline {4.4}Slides!}{8}{subsection.4.4}}
\bibcite{flux_paper}{1}
\bibcite{TN38}{2}
\bibcite{TN39}{3}
\bibcite{TN99}{4}
\bibcite{TN217}{5}
\bibcite{TN264}{6}
\bibcite{geant}{7}
\bibcite{geant_phys}{8}
\bibcite{fluka}{9}
\@writefile{toc}{\contentsline {section}{\numberline {A}Possible Errors}{10}{appendix.A}}
\@writefile{toc}{\contentsline {subsection}{\numberline {A.1}Internal Compilier Error}{10}{subsection.A.1}}
\@writefile{toc}{\contentsline {subsection}{\numberline {A.2}FLUKA SIGFPE Error}{10}{subsection.A.2}}
\@writefile{toc}{\contentsline {subsection}{\numberline {A.3}Compilation Error: redefining getline()}{10}{subsection.A.3}}
\@writefile{toc}{\contentsline {subsection}{\numberline {A.4}Jnubeam Jobs being cancelled}{10}{subsection.A.4}}
\citation{geant}
\citation{geant}
\@writefile{toc}{\contentsline {section}{\numberline {B}Overview of Jnubeam Code}{11}{appendix.B}}
\@writefile{toc}{\contentsline {section}{\numberline {C}Jnubeam Cardfile Settings}{11}{appendix.C}}
\citation{geant_phys}
\citation{geant}
\@writefile{toc}{\contentsline {section}{\numberline {D}Jnubeam Output Description}{13}{appendix.D}}
\citation{fluka}
\@writefile{toc}{\contentsline {section}{\numberline {E}Installing (actual) FLUKA}{15}{appendix.E}}
